<?xml version="1.0" encoding="utf-8"?>
<!-- Generator: Adobe Illustrator 23.0.1, SVG Export Plug-In . SVG Version: 6.00 Build 0)  -->
<svg version="1.1" xmlns="http://www.w3.org/2000/svg" xmlns:xlink="http://www.w3.org/1999/xlink" x="0px" y="0px"
	 viewBox="0 0 24 19.5" style="enable-background:new 0 0 24 19.5;" xml:space="preserve">
<style type="text/css">
	.st0{fill:#012664;}
</style>
<path id="icon_twitter" class="st0" d="M24,2.3c-0.9,0.4-1.9,0.7-2.8,0.8c1-0.6,1.8-1.6,2.2-2.7c-1,0.6-2,1-3.1,1.2
	c-1.9-2-5-2.1-7-0.2c-1,0.9-1.6,2.2-1.6,3.6c0,0.4,0,0.8,0.1,1.1C7.9,5.8,4.2,4,1.7,0.9C0.4,3.2,1,6,3.2,7.5C2.4,7.5,1.7,7.2,1,6.9
	v0.1c0,2.3,1.7,4.4,3.9,4.8c-0.4,0.1-0.9,0.2-1.3,0.2c-0.3,0-0.6,0-0.9-0.1c0.6,2,2.5,3.4,4.6,3.4c-1.7,1.4-3.9,2.1-6.1,2.1
	c-0.4,0-0.8,0-1.2-0.1c2.3,1.4,4.9,2.2,7.5,2.2c7.7,0.1,14-6.1,14-13.8c0-0.1,0-0.1,0-0.2c0-0.2,0-0.4,0-0.6
	C22.5,4.2,23.3,3.3,24,2.3L24,2.3z"/>
</svg>
