<?xml version="1.0" encoding="utf-8"?>
<!-- Generator: Adobe Illustrator 23.0.1, SVG Export Plug-In . SVG Version: 6.00 Build 0)  -->
<svg version="1.1" xmlns="http://www.w3.org/2000/svg" xmlns:xlink="http://www.w3.org/1999/xlink" x="0px" y="0px"
	 viewBox="0 0 7.4 6.1" style="enable-background:new 0 0 7.4 6.1;" xml:space="preserve">
<style type="text/css">
	.st0{fill:#012664;}
</style>
<g id="check">
	<polygon class="st0" points="2.7,6.1 0,3.4 1.4,2 2.7,3.3 6,0 7.4,1.4 	"/>
</g>
</svg>
