<?xml version="1.0" encoding="utf-8"?>
<!-- Generator: Adobe Illustrator 23.0.1, SVG Export Plug-In . SVG Version: 6.00 Build 0)  -->
<svg version="1.1" xmlns="http://www.w3.org/2000/svg" xmlns:xlink="http://www.w3.org/1999/xlink" x="0px" y="0px"
	 viewBox="0 0 58 58" style="enable-background:new 0 0 58 58;" xml:space="preserve">
<style type="text/css">
	.st0{fill:none;}
	.st1{fill:#012664;}
</style>
<g>
	<path class="st0" d="M-75.4,67.4c-11.6,0-21-9.4-21-21s9.4-21,21-21c4.7,0,9.3,1.6,13,4.5v3.5h3.5c7.2,9.1,5.6,22.3-3.5,29.5
		C-66.1,65.8-70.7,67.4-75.4,67.4z"/>
</g>
<g>
	<circle class="st0" cx="-75.4" cy="46.4" r="10"/>
</g>
<g>
	<path class="st0" d="M-54,37.4h-12.4V25l15.6-15.6v12.4h12.4L-54,37.4z"/>
</g>
<path class="st1" d="M58,12.4H45.6V0L30,15.6V18c-0.7-0.3-1.3-0.6-2-0.8c-2.2-0.8-4.6-1.2-7-1.2c-2.8,0-5.6,0.6-8.2,1.7
	c-2.5,1.1-4.7,2.6-6.7,4.5c-1.9,1.9-3.4,4.2-4.5,6.7C0.6,31.4,0,34.2,0,37c0,2.8,0.6,5.6,1.7,8.2c1.1,2.5,2.6,4.7,4.5,6.7
	c1.9,1.9,4.2,3.4,6.7,4.5c2.6,1.1,5.3,1.7,8.2,1.7c2.8,0,5.6-0.6,8.2-1.7c2.5-1.1,4.7-2.6,6.7-4.5c1.9-1.9,3.4-4.2,4.5-6.7
	c1.1-2.6,1.7-5.3,1.7-8.2c0-2.4-0.4-4.8-1.2-7c-0.2-0.7-0.5-1.3-0.8-2h2.5L58,12.4z M36.7,43.6c-0.9,2-2.1,3.8-3.6,5.4
	c-1.6,1.6-3.4,2.8-5.4,3.6C25.5,53.6,23.3,54,21,54s-4.5-0.4-6.6-1.3c-2-0.9-3.8-2.1-5.4-3.6c-1.6-1.6-2.8-3.4-3.6-5.4
	C4.4,41.5,4,39.3,4,37s0.4-4.5,1.3-6.6c0.9-2,2.1-3.8,3.6-5.4c1.6-1.6,3.4-2.8,5.4-3.6c2.1-0.9,4.3-1.3,6.6-1.3c1.9,0,3.9,0.3,5.7,1
	c1.2,0.4,2.3,1,3.3,1.6v2.6l-3.5,3.5C24.9,27.6,23,27,21,27c-5.5,0-10,4.5-10,10s4.5,10,10,10s10-4.5,10-10c0-2-0.6-3.9-1.7-5.5
	l3.5-3.5h2.6c0.7,1,1.2,2.2,1.6,3.3c0.6,1.8,1,3.7,1,5.7C38,39.3,37.6,41.5,36.7,43.6z M27,37c0,3.3-2.7,6-6,6s-6-2.7-6-6s2.7-6,6-6
	c0.9,0,1.8,0.2,2.6,0.6l-4,4l2.8,2.8l4-4C26.8,35.2,27,36.1,27,37z M37.5,24C37.5,24,37.5,24,37.5,24L34,24v-3.5c0,0,0,0,0,0v-3.3
	l7.6-7.6v2.8v4h4h2.8L40.8,24H37.5z"/>
</svg>
