<?xml version="1.0" encoding="utf-8"?>
<!-- Generator: Adobe Illustrator 23.0.1, SVG Export Plug-In . SVG Version: 6.00 Build 0)  -->
<svg version="1.1" id="icon_search" xmlns="http://www.w3.org/2000/svg" xmlns:xlink="http://www.w3.org/1999/xlink" x="0px"
	 y="0px" viewBox="0 0 20.7 20.7" style="enable-background:new 0 0 20.7 20.7;" xml:space="preserve">
<style type="text/css">
	.st0{fill:#012664;}
</style>
<path class="st0" d="M14.3,12.9C15.4,11.5,16,9.8,16,8c0-4.4-3.6-8-8-8S0,3.6,0,8s3.6,8,8,8c1.8,0,3.5-0.6,4.9-1.7l6.4,6.4l1.4-1.4
	L14.3,12.9z M8,14c-3.3,0-6-2.7-6-6s2.7-6,6-6s6,2.7,6,6S11.3,14,8,14z"/>
</svg>
