<?xml version="1.0" encoding="utf-8"?>
<!-- Generator: Adobe Illustrator 23.0.1, SVG Export Plug-In . SVG Version: 6.00 Build 0)  -->
<svg version="1.1" xmlns="http://www.w3.org/2000/svg" xmlns:xlink="http://www.w3.org/1999/xlink" x="0px" y="0px"
	 viewBox="0 0 11.4 22.4" style="enable-background:new 0 0 11.4 22.4;" xml:space="preserve">
<style type="text/css">
	.st0{fill:#012664;}
</style>
<path class="st0" d="M9.5,5v11.7c0,2.1-1.7,3.8-3.8,3.8c-2.1,0-3.8-1.7-3.8-3.8V4.2c0-1.3,1-2.3,2.3-2.3s2.3,1,2.3,2.3v10.5
	c0,0.4-0.4,0.8-0.8,0.8s-0.8-0.4-0.8-0.8V5H3v9.7c0,1.5,1.2,2.7,2.7,2.7c1.5,0,2.7-1.2,2.7-2.7V4.2C8.4,1.9,6.5,0,4.2,0S0,1.9,0,4.2
	v12.5c0,3.1,2.6,5.7,5.7,5.7c3.1,0,5.7-2.6,5.7-5.7V5H9.5z"/>
</svg>
