{
  "main.css": "/css/app.css",
  "main.js": "/js/app.js",
  "main.js.map": "/js/app.js.map",
  "css/app.css.map": "/css/app.css.map",
  "img/webapp/android-chrome-144x144.png": "/img/webapp/android-chrome-144x144.png",
  "img/webapp/android-chrome-192x192.png": "/img/webapp/android-chrome-192x192.png",
  "img/webapp/android-chrome-256x256.png": "/img/webapp/android-chrome-256x256.png",
  "img/webapp/android-chrome-36x36.png": "/img/webapp/android-chrome-36x36.png",
  "img/webapp/android-chrome-384x384.png": "/img/webapp/android-chrome-384x384.png",
  "img/webapp/android-chrome-48x48.png": "/img/webapp/android-chrome-48x48.png",
  "img/webapp/android-chrome-512x512.png": "/img/webapp/android-chrome-512x512.png",
  "img/webapp/android-chrome-72x72.png": "/img/webapp/android-chrome-72x72.png",
  "img/webapp/android-chrome-96x96.png": "/img/webapp/android-chrome-96x96.png",
  "img/webapp/apple-touch-icon-1024x1024.png": "/img/webapp/apple-touch-icon-1024x1024.png",
  "img/webapp/apple-touch-icon-114x114.png": "/img/webapp/apple-touch-icon-114x114.png",
  "img/webapp/apple-touch-icon-120x120.png": "/img/webapp/apple-touch-icon-120x120.png",
  "img/webapp/apple-touch-icon-144x144.png": "/img/webapp/apple-touch-icon-144x144.png",
  "img/webapp/apple-touch-icon-152x152.png": "/img/webapp/apple-touch-icon-152x152.png",
  "img/webapp/apple-touch-icon-167x167.png": "/img/webapp/apple-touch-icon-167x167.png",
  "img/webapp/apple-touch-icon-180x180.png": "/img/webapp/apple-touch-icon-180x180.png",
  "img/webapp/apple-touch-icon-57x57.png": "/img/webapp/apple-touch-icon-57x57.png",
  "img/webapp/apple-touch-icon-60x60.png": "/img/webapp/apple-touch-icon-60x60.png",
  "img/webapp/apple-touch-icon-72x72.png": "/img/webapp/apple-touch-icon-72x72.png",
  "img/webapp/apple-touch-icon-76x76.png": "/img/webapp/apple-touch-icon-76x76.png",
  "img/webapp/apple-touch-icon-precomposed.png": "/img/webapp/apple-touch-icon-precomposed.png",
  "img/webapp/apple-touch-icon.png": "/img/webapp/apple-touch-icon.png",
  "img/webapp/apple-touch-startup-image-1182x2208.png": "/img/webapp/apple-touch-startup-image-1182x2208.png",
  "img/webapp/apple-touch-startup-image-1242x2148.png": "/img/webapp/apple-touch-startup-image-1242x2148.png",
  "img/webapp/apple-touch-startup-image-1496x2048.png": "/img/webapp/apple-touch-startup-image-1496x2048.png",
  "img/webapp/apple-touch-startup-image-1536x2008.png": "/img/webapp/apple-touch-startup-image-1536x2008.png",
  "img/webapp/apple-touch-startup-image-320x460.png": "/img/webapp/apple-touch-startup-image-320x460.png",
  "img/webapp/apple-touch-startup-image-640x1096.png": "/img/webapp/apple-touch-startup-image-640x1096.png",
  "img/webapp/apple-touch-startup-image-640x920.png": "/img/webapp/apple-touch-startup-image-640x920.png",
  "img/webapp/apple-touch-startup-image-748x1024.png": "/img/webapp/apple-touch-startup-image-748x1024.png",
  "img/webapp/apple-touch-startup-image-750x1294.png": "/img/webapp/apple-touch-startup-image-750x1294.png",
  "img/webapp/apple-touch-startup-image-768x1004.png": "/img/webapp/apple-touch-startup-image-768x1004.png",
  "img/webapp/browserconfig.xml": "/img/webapp/browserconfig.xml",
  "img/webapp/coast-228x228.png": "/img/webapp/coast-228x228.png",
  "img/webapp/favicon-16x16.png": "/img/webapp/favicon-16x16.png",
  "img/webapp/favicon-32x32.png": "/img/webapp/favicon-32x32.png",
  "img/webapp/favicon.ico": "/img/webapp/favicon.ico",
  "img/webapp/firefox_app_128x128.png": "/img/webapp/firefox_app_128x128.png",
  "img/webapp/firefox_app_512x512.png": "/img/webapp/firefox_app_512x512.png",
  "img/webapp/firefox_app_60x60.png": "/img/webapp/firefox_app_60x60.png",
  "img/webapp/manifest.json": "/img/webapp/manifest.json",
  "img/webapp/manifest.webapp": "/img/webapp/manifest.webapp",
  "img/webapp/mstile-144x144.png": "/img/webapp/mstile-144x144.png",
  "img/webapp/mstile-150x150.png": "/img/webapp/mstile-150x150.png",
  "img/webapp/mstile-310x150.png": "/img/webapp/mstile-310x150.png",
  "img/webapp/mstile-310x310.png": "/img/webapp/mstile-310x310.png",
  "img/webapp/mstile-70x70.png": "/img/webapp/mstile-70x70.png",
  "img/webapp/yandex-browser-50x50.png": "/img/webapp/yandex-browser-50x50.png",
  "img/webapp/yandex-browser-manifest.json": "/img/webapp/yandex-browser-manifest.json",
  "index.html": "/index.html",
  "precache-manifest.8e399983c345b7d5a5151a1aeb38df32.js": "/precache-manifest.8e399983c345b7d5a5151a1aeb38df32.js",
  "service-worker.js": "/service-worker.js"
}