<?xml version="1.0" encoding="utf-8"?>
<!-- Generator: Adobe Illustrator 23.0.1, SVG Export Plug-In . SVG Version: 6.00 Build 0)  -->
<svg version="1.1" xmlns="http://www.w3.org/2000/svg" xmlns:xlink="http://www.w3.org/1999/xlink" x="0px" y="0px"
	 viewBox="0 0 20 20" style="enable-background:new 0 0 20 20;" xml:space="preserve">
<style type="text/css">
	.st0{fill:#012664;}
</style>
<g>
	<rect y="12" class="st0" width="8" height="8"/>
	<rect x="12" y="0" class="st0" width="8" height="8"/>
	<rect y="0" class="st0" width="8" height="8"/>
	<rect x="12" y="12" class="st0" width="8" height="8"/>
</g>
</svg>
