<?xml version="1.0" encoding="utf-8"?>
<!-- Generator: Adobe Illustrator 23.0.1, SVG Export Plug-In . SVG Version: 6.00 Build 0)  -->
<svg version="1.1" xmlns="http://www.w3.org/2000/svg" xmlns:xlink="http://www.w3.org/1999/xlink" x="0px" y="0px"
	 viewBox="0 0 24 4" style="enable-background:new 0 0 24 4;" xml:space="preserve">
<style type="text/css">
	.st0{fill:#EA3824;}
</style>
<g id="line">
	<rect y="0" class="st0" width="24" height="4"/>
</g>
</svg>
