<?xml version="1.0" encoding="utf-8"?>
<!-- Generator: Adobe Illustrator 23.0.1, SVG Export Plug-In . SVG Version: 6.00 Build 0)  -->
<svg version="1.1" xmlns="http://www.w3.org/2000/svg" xmlns:xlink="http://www.w3.org/1999/xlink" x="0px" y="0px"
	 viewBox="0 0 19.8 19.8" style="enable-background:new 0 0 19.8 19.8;" xml:space="preserve">
<style type="text/css">
	.st0{fill:#EA3824;}
</style>
<polygon class="st0" points="19.8,2.8 17,0 9.9,7.1 2.8,0 0,2.8 7.1,9.9 0,17 2.8,19.8 9.9,12.7 17,19.8 19.8,17 12.7,9.9 "/>
</svg>
